50000	625	25	625
50000	625	25	625
50000	625	25	625
50000	625	25	625
50000	625	25	625
50000	625	25	625
50000	625	25	625
50000	625	25	625
8	625	25	625
8	625	25	625
50000	625	25	625
50000	625	25	625
50000	625	25	625
50000	625	25	625
50000	625	25	625
50000	625	25	625
8	625	25	625
8	625	25	625
50000	625	25	625
50000	625	25	625
50000	625	25	625
50000	625	25	625
50000	625	25	625
50000	625	25	625
8	625	25	625
8	625	25	625
50000	625	25	625
50000	625	25	625
50000	625	25	625
50000	625	25	625
50000	625	25	625
50000	625	25	625